%YAML 1.1
%TAG !u! tag:unity3d.com,2011:
--- !u!21 &2100000
Material:
  serializedVersion: 6
  m_ObjectHideFlags: 0
  m_CorrespondingSourceObject: {fileID: 0}
  m_PrefabInstance: {fileID: 0}
  m_PrefabAsset: {fileID: 0}
  m_Name: Earth
  m_Shader: {fileID: 4800000, guid: 543a72c43ae674441b36c43b80402166, type: 3}
  m_ShaderKeywords: _METALLICGLOSSMAP _NORMALMAP _SMOOTHNESS_TEXTURE_ALBEDO_CHANNEL_A
    _SPECGLOSSMAP
  m_LightmapFlags: 4
  m_EnableInstancingVariants: 0
  m_DoubleSidedGI: 0
  m_CustomRenderQueue: -1
  stringTagMap: {}
  disabledShaderPasses: []
  m_SavedProperties:
    serializedVersion: 3
    m_TexEnvs:
    - _BumpMap:
        m_Texture: {fileID: 2800000, guid: 170ba97657f19cf4496d1ac860281fbb, type: 3}
        m_Scale: {x: 1, y: 1}
        m_Offset: {x: 0, y: 0}
    - _CityLightMap:
        m_Texture: {fileID: 2800000, guid: d7252bb14579aef4c81b8320fda5ce87, type: 3}
        m_Scale: {x: 1, y: 1}
        m_Offset: {x: 0, y: 0}
    - _CloudMap:
        m_Texture: {fileID: 2800000, guid: 7564dc4a38b3f1248aee2f67816211f3, type: 3}
        m_Scale: {x: 1, y: 1}
        m_Offset: {x: 0, y: 0}
    - _DetailAlbedoMap:
        m_Texture: {fileID: 0}
        m_Scale: {x: 1, y: 1}
        m_Offset: {x: 0, y: 0}
    - _DetailMap:
        m_Texture: {fileID: 2800000, guid: 19ad9a2cf52146841829b73be40b0efb, type: 3}
        m_Scale: {x: 1, y: 1}
        m_Offset: {x: 0, y: 0}
    - _DetailMask:
        m_Texture: {fileID: 0}
        m_Scale: {x: 1, y: 1}
        m_Offset: {x: 0, y: 0}
    - _DetailNormalMap:
        m_Texture: {fileID: 0}
        m_Scale: {x: 1, y: 1}
        m_Offset: {x: 0, y: 0}
    - _EmissionMap:
        m_Texture: {fileID: 0}
        m_Scale: {x: 1, y: 1}
        m_Offset: {x: 0, y: 0}
    - _HeightMap:
        m_Texture: {fileID: 2800000, guid: 5e0a897a24c87e240aa4c50719175048, type: 3}
        m_Scale: {x: 1, y: 1}
        m_Offset: {x: 0, y: 0}
    - _MainTex:
        m_Texture: {fileID: 2800000, guid: 68a9ed9d283e600409411ea41fc831bf, type: 3}
        m_Scale: {x: 1, y: 1}
        m_Offset: {x: 0, y: 1}
    - _MetallicGlossMap:
        m_Texture: {fileID: 2800000, guid: 7bde6c3a018c8b5488dfcbdef49cceac, type: 3}
        m_Scale: {x: 1, y: 1}
        m_Offset: {x: 0, y: 0}
    - _OcclusionMap:
        m_Texture: {fileID: 0}
        m_Scale: {x: 1, y: 1}
        m_Offset: {x: 0, y: 0}
    - _ParallaxMap:
        m_Texture: {fileID: 0}
        m_Scale: {x: 1, y: 1}
        m_Offset: {x: 0, y: 0}
    - _SpecGlossMap:
        m_Texture: {fileID: 2800000, guid: 7bde6c3a018c8b5488dfcbdef49cceac, type: 3}
        m_Scale: {x: 1, y: 1}
        m_Offset: {x: 0, y: 0}
    - _SpecularMap:
        m_Texture: {fileID: 2800000, guid: 30043056a8c241b48913af4daf2e328e, type: 3}
        m_Scale: {x: 1, y: 1}
        m_Offset: {x: 0, y: 0}
    m_Floats:
    - _AtmosphereDensity: 7.31
    - _AtmosphereStrength: 4.88
    - _BumpScale: 5
    - _CityLightIntensity: 0.4
    - _CityNightIntensity: 0
    - _CloudMapSpecularity: 0.01
    - _CloudPanSpeed: -0.08
    - _Cutoff: 0.5
    - _DetailMapSpecularity: -0.94
    - _DetailNormalMapScale: 1
    - _DetailPanSpeed: 0.01
    - _DstBlend: 0
    - _GlossMapScale: 0.938
    - _Glossiness: 0.5
    - _GlossyReflections: 1
    - _HeightmapIntensity: 0.35
    - _LightAtmosphereFX: 0.5
    - _LightStretch: 0.5
    - _Metallic: 0
    - _Mode: 0
    - _NormalMapIntensity: 4.56
    - _NormalmapIntensity: 1
    - _OcclusionStrength: 1
    - _Parallax: 0.02
    - _RingLighten: 0
    - _Smoothness: 0.312
    - _SmoothnessTextureChannel: 1
    - _SpecularHighlights: 1
    - _SpecularMapIntensity: 1
    - _Specularity: 0
    - _SrcBlend: 1
    - _UVSec: 0
    - _ZWrite: 1
    m_Colors:
    - _AtmosphereColor: {r: 0.51427335, g: 0.6587051, b: 0.85294116, a: 1}
    - _CityLightColor: {r: 1, g: 1, b: 1, a: 1}
    - _CloudColor: {r: 1, g: 1, b: 1, a: 1}
    - _Color: {r: 1, g: 1, b: 1, a: 1}
    - _DetailColor: {r: 0.77205884, g: 0.77205884, b: 0.77205884, a: 1}
    - _EmissionColor: {r: 0, g: 0, b: 0, a: 1}
    - _SpecColor: {r: 0.2, g: 0.2, b: 0.2, a: 1}
    - _TextureColor: {r: 1, g: 1, b: 1, a: 1}
    - _node_1532: {r: 0.5017301, g: 0.8529412, b: 0.5477508, a: 1}
