%YAML 1.1
%TAG !u! tag:unity3d.com,2011:
--- !u!1045 &1
EditorBuildSettings:
  m_ObjectHideFlags: 0
  serializedVersion: 2
  m_Scenes:
  - enabled: 1
    path: Assets/TestSceneInOrbit.unity
    guid: 38716d631f1fe034981e277fcf01535c
  m_configObjects: {}
